%YAML 1.1
%TAG !u! tag:unity3d.com,2011:
--- !u!74 &7400000
AnimationClip:
  m_ObjectHideFlags: 0
  m_CorrespondingSourceObject: {fileID: 0}
  m_PrefabInstance: {fileID: 0}
  m_PrefabAsset: {fileID: 0}
  m_Name: Idle
  serializedVersion: 6
  m_Legacy: 0
  m_Compressed: 0
  m_UseHighQualityCurve: 1
  m_RotationCurves: []
  m_CompressedRotationCurves: []
  m_EulerCurves: []
  m_PositionCurves: []
  m_ScaleCurves: []
  m_FloatCurves: []
  m_PPtrCurves:
  - curve:
    - time: 0
      value: {fileID: 21300000, guid: c9594bbacf30aee40b6318c5fe568429, type: 3}
    - time: 0.11666667
      value: {fileID: 21300000, guid: 48c6fd002c0fa2049877a51571374f22, type: 3}
    - time: 0.23333333
      value: {fileID: 21300000, guid: b8e76a127f43a254f8c5579567a67b42, type: 3}
    - time: 0.35
      value: {fileID: 21300000, guid: 752902db23c5c1e44a5087bad356aaae, type: 3}
    - time: 0.48333332
      value: {fileID: 21300000, guid: a08be2450f1a0f9419a6a3c4b62a3f32, type: 3}
    - time: 0.6
      value: {fileID: 21300000, guid: cc3dc11c12d1ddf4899d9247d9b136fb, type: 3}
    - time: 0.71666664
      value: {fileID: 21300000, guid: af7ff283bc365c74e9a53961090c73e4, type: 3}
    - time: 0.8333333
      value: {fileID: 21300000, guid: 851f5e746b1e4584481bad5579b0ce98, type: 3}
    attribute: m_Sprite
    path: 
    classID: 212
    script: {fileID: 0}
  m_SampleRate: 60
  m_WrapMode: 0
  m_Bounds:
    m_Center: {x: 0, y: 0, z: 0}
    m_Extent: {x: 0, y: 0, z: 0}
  m_ClipBindingConstant:
    genericBindings:
    - serializedVersion: 2
      path: 0
      attribute: 0
      script: {fileID: 0}
      typeID: 212
      customType: 23
      isPPtrCurve: 1
    pptrCurveMapping:
    - {fileID: 21300000, guid: c9594bbacf30aee40b6318c5fe568429, type: 3}
    - {fileID: 21300000, guid: 48c6fd002c0fa2049877a51571374f22, type: 3}
    - {fileID: 21300000, guid: b8e76a127f43a254f8c5579567a67b42, type: 3}
    - {fileID: 21300000, guid: 752902db23c5c1e44a5087bad356aaae, type: 3}
    - {fileID: 21300000, guid: a08be2450f1a0f9419a6a3c4b62a3f32, type: 3}
    - {fileID: 21300000, guid: cc3dc11c12d1ddf4899d9247d9b136fb, type: 3}
    - {fileID: 21300000, guid: af7ff283bc365c74e9a53961090c73e4, type: 3}
    - {fileID: 21300000, guid: 851f5e746b1e4584481bad5579b0ce98, type: 3}
  m_AnimationClipSettings:
    serializedVersion: 2
    m_AdditiveReferencePoseClip: {fileID: 0}
    m_AdditiveReferencePoseTime: 0
    m_StartTime: 0
    m_StopTime: 0.84999996
    m_OrientationOffsetY: 0
    m_Level: 0
    m_CycleOffset: 0
    m_HasAdditiveReferencePose: 0
    m_LoopTime: 1
    m_LoopBlend: 0
    m_LoopBlendOrientation: 0
    m_LoopBlendPositionY: 0
    m_LoopBlendPositionXZ: 0
    m_KeepOriginalOrientation: 0
    m_KeepOriginalPositionY: 1
    m_KeepOriginalPositionXZ: 0
    m_HeightFromFeet: 0
    m_Mirror: 0
  m_EditorCurves: []
  m_EulerEditorCurves: []
  m_HasGenericRootTransform: 0
  m_HasMotionFloatCurves: 0
  m_Events: []
